{
    "espocrm": {
        "repository": "https://github.com/espocrm/espocrm.git",
        "branch": "stable"
    },
    "database": {
        "driver": "pdo_mysql",
        "host": "localhost",
        "port": "",
        "charset": "utf8mb4",
        "dbname": "ext-cratos-leads-mailer",
        "user": "root",
        "password": ""
    },
    "install": {
        "language": "en_US",
        "defaultOwner": "www-data",
        "defaultGroup": "www-data",
        "siteUrl": "http://localhost/ext-cratos-leads-mailer/site",
        "adminUsername": "admin",
        "adminPassword": "1"
    }
}