{
    "module": "CratosLeadsMailer",
    "name": "CratosLeadsMailer",
    "description": "this extension will send an email to (info@trustworld.co) every time a new Entity Added On the Leads Section.",
    "author": "Homayoon Parsaee",
    "acceptableVersions": [
        ">=5.9.0"
    ],
    "php": [
        ">=7.2"
    ]
}